{
	"general": {
		"oobDropClickOverride": "ALL_ITEMS",
		"cursorCloseDropOverride": "ALL_ITEMS"
	},
	"dropDelay": {
		"mode": "ENABLED",
		"ticks": 10,
		"doDelayOnce": true
	},
	"favorites": {
		"enabled": false,
		"disableShiftClick": false,
		"drawOverlay": true,
		"items": [
			"minecraft:spawner",
			"minecraft:dragon_egg",
			"minecraft:command_block",
			"minecraft:beacon",
			"minecraft:barrier",
			"minecraft:light",
			"minecraft:repeating_command_block",
			"minecraft:chain_command_block",
			"minecraft:structure_void",
			"minecraft:conduit",
			"minecraft:elytra",
			"minecraft:structure_block",
			"minecraft:jigsaw",
			"minecraft:golden_apple",
			"minecraft:enchanted_golden_apple",
			"minecraft:experience_bottle",
			"minecraft:skeleton_skull",
			"minecraft:wither_skeleton_skull",
			"minecraft:player_head",
			"minecraft:zombie_head",
			"minecraft:creeper_head",
			"minecraft:dragon_head",
			"minecraft:nether_star",
			"minecraft:enchanted_book",
			"minecraft:command_block_minecart",
			"minecraft:end_crystal",
			"minecraft:dragon_breath",
			"minecraft:totem_of_undying",
			"minecraft:knowledge_book",
			"minecraft:debug_stick",
			"minecraft:music_disc_13",
			"minecraft:music_disc_cat",
			"minecraft:music_disc_blocks",
			"minecraft:music_disc_chirp",
			"minecraft:music_disc_far",
			"minecraft:music_disc_mall",
			"minecraft:music_disc_mellohi",
			"minecraft:music_disc_stal",
			"minecraft:music_disc_strad",
			"minecraft:music_disc_ward",
			"minecraft:music_disc_11",
			"minecraft:music_disc_wait",
			"minecraft:music_disc_otherside",
			"minecraft:music_disc_pigstep",
			"minecraft:heart_of_the_sea",
			"minecraft:creeper_banner_pattern",
			"minecraft:skull_banner_pattern",
			"minecraft:mojang_banner_pattern"
		],
		"enchantments": [
			"minecraft:protection",
			"minecraft:fire_protection",
			"minecraft:feather_falling",
			"minecraft:blast_protection",
			"minecraft:projectile_protection",
			"minecraft:respiration",
			"minecraft:aqua_affinity",
			"minecraft:thorns",
			"minecraft:depth_strider",
			"minecraft:frost_walker",
			"minecraft:soul_speed",
			"minecraft:sharpness",
			"minecraft:smite",
			"minecraft:bane_of_arthropods",
			"minecraft:knockback",
			"minecraft:fire_aspect",
			"minecraft:looting",
			"minecraft:sweeping",
			"minecraft:efficiency",
			"minecraft:silk_touch",
			"minecraft:unbreaking",
			"minecraft:fortune",
			"minecraft:power",
			"minecraft:punch",
			"minecraft:flame",
			"minecraft:infinity",
			"minecraft:luck_of_the_sea",
			"minecraft:lure",
			"minecraft:loyalty",
			"minecraft:impaling",
			"minecraft:riptide",
			"minecraft:channeling",
			"minecraft:multishot",
			"minecraft:quick_charge",
			"minecraft:piercing",
			"minecraft:mending"
		],
		"enchIgnoreInvalidTargets": true,
		"tags": []
	}
}
